# Blender v3.6.0 OBJ File: 'Asteroids.blend'
# www.blender.org
mtllib Asteroids_Med.mtl
o Medium_Cube.001
v 2.039257 2.137582 -1.704575
v 1.930887 -1.939427 -1.186765
v 2.091412 1.903865 2.682763
v 1.616781 -2.040520 2.134337
v -2.415428 1.817518 -1.763241
v -2.402927 -1.742263 -1.431081
v -2.292403 1.772711 2.292800
v -2.014424 -1.584155 1.812302
v 0.996185 2.673842 2.849089
v -0.120821 2.429161 2.558695
v -1.087005 2.322004 3.126561
v -0.961001 -2.435735 2.678071
v -0.274377 -2.604585 2.738416
v 1.087069 -2.318430 2.955629
v 2.067691 0.897905 2.505188
v 2.323722 -0.298281 3.113793
v 2.200194 -1.256682 3.069366
v 2.451706 2.428865 -0.489104
v 2.014678 2.586749 0.301062
v 1.947820 2.395865 1.731860
v 2.380836 -2.248101 1.240094
v 2.018438 -2.743343 0.335652
v 2.100416 -2.093375 -0.741221
v 2.387896 0.787071 -1.860842
v 2.667205 0.023526 -1.748323
v 2.087276 -0.827195 -1.776411
v -1.095632 2.580646 -1.890525
v -0.422321 2.698096 -1.898603
v 0.794375 2.607351 -1.849859
v 1.168695 -2.414560 -1.759064
v -0.192289 -2.314810 -1.810192
v -1.422229 -2.386086 -1.634708
v -2.342256 0.572709 -1.632503
v -2.400571 -0.070787 -1.765463
v -2.562784 -1.362062 -1.629900
v -2.331093 2.607643 1.122847
v -2.453980 2.370409 0.526007
v -2.793813 2.230287 -0.578773
v -2.049932 -0.695486 2.406890
v -2.455533 0.484272 2.337083
v -2.123959 1.412863 2.350066
v -2.352069 -2.334418 -0.412818
v -2.438411 -2.742727 0.574213
v -2.032433 -2.102293 1.060761
v -2.398993 -0.700195 1.344226
v -2.977831 -1.073927 0.347428
v -3.381307 -1.362958 -0.988588
v -3.324602 0.536254 1.573169
v -3.581873 0.319196 0.378249
v -3.028829 0.117694 -0.799558
v -2.819431 1.542187 1.867707
v -3.348665 1.792625 0.321647
v -2.898420 1.082615 -0.604856
v -1.064558 -1.411428 -2.431661
v -0.148921 -1.476624 -3.096822
v 1.068488 -1.075269 -2.209988
v -1.311498 -0.152314 -2.541308
v -0.029307 -0.054317 -4.020561
v 1.170234 -0.133571 -3.302455
v -1.355784 0.971450 -2.505426
v 0.351716 1.145283 -3.443968
v 1.416699 1.629233 -2.765596
v 3.200558 -1.822037 -1.112079
v 3.171530 -2.028477 0.230193
v 3.100313 -1.247519 1.833921
v 3.115545 -0.282787 -1.294263
v 3.883169 -0.517388 -0.157312
v 3.299847 -0.120112 1.440296
v 2.983989 1.498611 -1.096626
v 3.437269 1.339327 0.056517
v 3.011390 1.151515 1.456304
v 1.099383 -1.660319 3.598931
v 0.132886 -1.394006 3.395300
v -1.086930 -0.989603 3.329264
v 0.938852 0.206868 3.709360
v -0.154077 0.026973 3.483164
v -1.540980 0.302452 3.257213
v 0.953620 1.674853 3.192966
v -0.413959 1.519293 3.774910
v -1.306239 1.526616 3.019144
v -1.422840 -3.072574 -0.477822
v -1.460590 -2.923637 0.494862
v -1.099267 -2.787865 1.470559
v 0.071865 -3.131117 -1.009603
v -0.378163 -3.646303 0.618926
v -0.517007 -3.140800 1.937504
v 1.206657 -3.173373 -1.030384
v 1.564644 -3.083908 0.746035
v 1.301824 -2.789848 1.917178
v 1.441411 2.998495 -1.037302
v 1.157160 3.385574 0.462080
v 1.338378 2.973508 1.219443
v -0.054846 3.404898 -1.222458
v -0.229511 3.638665 0.165688
v 0.019471 3.468059 1.241039
v -1.411727 3.194313 -0.670284
v -1.435274 3.369458 0.571344
v -1.595932 3.041318 1.769325
v 2.098501 2.194900 -1.761187
v 1.978384 -1.991466 -1.257730
v 2.157220 1.939482 2.749101
v 1.679876 -2.101607 2.182166
v -2.484595 1.849695 -1.827899
v -2.453262 -1.806597 -1.488765
v -2.359522 1.811636 2.355887
v -2.097498 -1.624500 1.850654
v 1.022310 2.745408 2.913864
v -0.119637 2.506992 2.621472
v -1.115996 2.381377 3.201623
v -1.012832 -2.493847 2.740813
v -0.289092 -2.676149 2.806695
v 1.117885 -2.390814 3.017362
v 2.135992 0.927261 2.572070
v 2.390255 -0.286196 3.187463
v 2.264269 -1.292826 3.137101
v 2.519818 2.499373 -0.508839
v 2.081356 2.660676 0.310485
v 2.016536 2.462450 1.760921
v 2.440349 -2.320230 1.275528
v 2.080483 -2.821738 0.333493
v 2.147465 -2.167856 -0.788539
v 2.458709 0.811660 -1.927030
v 2.733924 0.017357 -1.822555
v 2.136966 -0.870177 -1.851800
v -1.136751 2.641471 -1.958419
v -0.437075 2.768549 -1.968020
v 0.822271 2.678155 -1.914733
v 1.209016 -2.471206 -1.830935
v -0.195453 -2.386610 -1.879725
v -1.459369 -2.456056 -1.695738
v -2.415743 0.585584 -1.699090
v -2.467937 -0.063121 -1.838968
v -2.622821 -1.392171 -1.703988
v -2.399528 2.676761 1.146070
v -2.524656 2.441090 0.529038
v -2.871344 2.285631 -0.609203
v -2.127191 -0.727488 2.461725
v -2.527082 0.476216 2.406479
v -2.187656 1.431148 2.424955
v -2.418983 -2.406050 -0.432599
v -2.505070 -2.810745 0.604710
v -2.102424 -2.150260 1.113681
v -2.480332 -0.737232 1.389083
v -3.067464 -1.107402 0.376501
v -3.469649 -1.393792 -1.023870
v -3.411081 0.526042 1.622333
v -3.681579 0.313249 0.383085
v -3.117844 0.128437 -0.843840
v -2.894867 1.579178 1.921939
v -3.438369 1.836401 0.315581
v -2.986692 1.099976 -0.648521
v -1.112535 -1.455524 -2.507515
v -0.155226 -1.536750 -3.176478
v 1.118333 -1.127530 -2.279157
v -1.373677 -0.153504 -2.619617
v -0.040258 -0.065460 -4.119333
v 1.230389 -0.156092 -3.379099
v -1.408457 0.997784 -2.586247
v 0.351936 1.189041 -3.533886
v 1.465112 1.676940 -2.838946
v 3.259911 -1.877132 -1.170745
v 3.247160 -2.093900 0.230310
v 3.180110 -1.288164 1.878423
v 3.192512 -0.285643 -1.358042
v 3.982760 -0.522562 -0.164728
v 3.390318 -0.113655 1.482405
v 3.063462 1.539640 -1.141353
v 3.527089 1.383284 0.057037
v 3.094715 1.191118 1.494888
v 1.119601 -1.702438 3.687346
v 0.115394 -1.423058 3.489375
v -1.129156 -1.014115 3.416534
v 0.963162 0.217457 3.805781
v -0.167862 0.025266 3.582195
v -1.594808 0.300092 3.341456
v 0.980792 1.706132 3.283979
v -0.426013 1.548012 3.869936
v -1.354528 1.543896 3.104991
v -1.460272 -3.159480 -0.510167
v -1.506732 -3.011151 0.509430
v -1.157640 -2.859975 1.507879
v 0.066888 -3.220431 -1.054306
v -0.392518 -3.744929 0.627106
v -0.538656 -3.229465 1.978368
v 1.244932 -3.255654 -1.072394
v 1.611068 -3.171718 0.757619
v 1.347052 -2.867407 1.961212
v 1.483920 3.082110 -1.071965
v 1.197659 3.476695 0.469611
v 1.382033 3.059306 1.246515
v -0.053242 3.494990 -1.265826
v -0.230381 3.738661 0.165490
v 0.024169 3.562010 1.274969
v -1.454896 3.280079 -0.698224
v -1.476417 3.460507 0.575493
v -1.636740 3.123384 1.809323
vt 0.562500 0.187500
vt 0.625000 0.187500
vt 0.625000 0.250000
vt 0.562500 0.250000
vt 0.562500 0.437500
vt 0.625000 0.437500
vt 0.625000 0.500000
vt 0.562500 0.500000
vt 0.562500 0.687500
vt 0.625000 0.687500
vt 0.625000 0.750000
vt 0.562500 0.750000
vt 0.562500 0.937500
vt 0.625000 0.937500
vt 0.625000 1.000000
vt 0.562500 1.000000
vt 0.312500 0.687500
vt 0.375000 0.687500
vt 0.375000 0.750000
vt 0.312500 0.750000
vt 0.812500 0.687500
vt 0.875000 0.687500
vt 0.875000 0.750000
vt 0.812500 0.750000
vt 0.625000 0.687500
vt 0.687500 0.687500
vt 0.687500 0.750000
vt 0.625000 0.750000
vt 0.750000 0.687500
vt 0.750000 0.750000
vt 0.625000 0.500000
vt 0.687500 0.500000
vt 0.687500 0.562500
vt 0.625000 0.562500
vt 0.687500 0.625000
vt 0.625000 0.625000
vt 0.750000 0.500000
vt 0.750000 0.562500
vt 0.750000 0.625000
vt 0.812500 0.500000
vt 0.812500 0.562500
vt 0.812500 0.625000
vt 0.875000 0.500000
vt 0.875000 0.562500
vt 0.875000 0.625000
vt 0.125000 0.687500
vt 0.187500 0.687500
vt 0.187500 0.750000
vt 0.125000 0.750000
vt 0.250000 0.687500
vt 0.250000 0.750000
vt 0.125000 0.500000
vt 0.187500 0.500000
vt 0.187500 0.562500
vt 0.125000 0.562500
vt 0.187500 0.625000
vt 0.125000 0.625000
vt 0.250000 0.500000
vt 0.250000 0.562500
vt 0.250000 0.625000
vt 0.312500 0.500000
vt 0.312500 0.562500
vt 0.312500 0.625000
vt 0.375000 0.500000
vt 0.375000 0.562500
vt 0.375000 0.625000
vt 0.375000 0.937500
vt 0.437500 0.937500
vt 0.437500 1.000000
vt 0.375000 1.000000
vt 0.500000 0.937500
vt 0.500000 1.000000
vt 0.375000 0.750000
vt 0.437500 0.750000
vt 0.437500 0.812500
vt 0.375000 0.812500
vt 0.437500 0.875000
vt 0.375000 0.875000
vt 0.500000 0.750000
vt 0.500000 0.812500
vt 0.500000 0.875000
vt 0.562500 0.750000
vt 0.562500 0.812500
vt 0.562500 0.875000
vt 0.625000 0.750000
vt 0.625000 0.812500
vt 0.625000 0.875000
vt 0.375000 0.687500
vt 0.437500 0.687500
vt 0.437500 0.750000
vt 0.375000 0.750000
vt 0.500000 0.687500
vt 0.500000 0.750000
vt 0.375000 0.500000
vt 0.437500 0.500000
vt 0.437500 0.562500
vt 0.375000 0.562500
vt 0.437500 0.625000
vt 0.375000 0.625000
vt 0.500000 0.500000
vt 0.500000 0.562500
vt 0.500000 0.625000
vt 0.562500 0.500000
vt 0.562500 0.562500
vt 0.562500 0.625000
vt 0.625000 0.500000
vt 0.625000 0.562500
vt 0.625000 0.625000
vt 0.375000 0.437500
vt 0.437500 0.437500
vt 0.437500 0.500000
vt 0.375000 0.500000
vt 0.500000 0.437500
vt 0.500000 0.500000
vt 0.375000 0.250000
vt 0.437500 0.250000
vt 0.437500 0.312500
vt 0.375000 0.312500
vt 0.437500 0.375000
vt 0.375000 0.375000
vt 0.500000 0.250000
vt 0.500000 0.312500
vt 0.500000 0.375000
vt 0.562500 0.250000
vt 0.562500 0.312500
vt 0.562500 0.375000
vt 0.625000 0.250000
vt 0.625000 0.312500
vt 0.625000 0.375000
vt 0.375000 0.187500
vt 0.437500 0.187500
vt 0.437500 0.250000
vt 0.375000 0.250000
vt 0.500000 0.187500
vt 0.500000 0.250000
vt 0.375000 0.000000
vt 0.437500 0.000000
vt 0.437500 0.062500
vt 0.375000 0.062500
vt 0.437500 0.125000
vt 0.375000 0.125000
vt 0.500000 0.000000
vt 0.500000 0.062500
vt 0.500000 0.125000
vt 0.562500 0.000000
vt 0.562500 0.062500
vt 0.562500 0.125000
vt 0.625000 0.000000
vt 0.625000 0.062500
vt 0.625000 0.125000
vt 0.562500 0.187500
vt 0.562500 0.250000
vt 0.625000 0.250000
vt 0.625000 0.187500
vt 0.562500 0.437500
vt 0.562500 0.500000
vt 0.625000 0.500000
vt 0.625000 0.437500
vt 0.562500 0.687500
vt 0.562500 0.750000
vt 0.625000 0.750000
vt 0.625000 0.687500
vt 0.562500 0.937500
vt 0.562500 1.000000
vt 0.625000 1.000000
vt 0.625000 0.937500
vt 0.312500 0.687500
vt 0.312500 0.750000
vt 0.375000 0.750000
vt 0.375000 0.687500
vt 0.812500 0.687500
vt 0.812500 0.750000
vt 0.875000 0.750000
vt 0.875000 0.687500
vt 0.625000 0.687500
vt 0.625000 0.750000
vt 0.687500 0.750000
vt 0.687500 0.687500
vt 0.750000 0.750000
vt 0.750000 0.687500
vt 0.625000 0.500000
vt 0.625000 0.562500
vt 0.687500 0.562500
vt 0.687500 0.500000
vt 0.625000 0.625000
vt 0.687500 0.625000
vt 0.750000 0.562500
vt 0.750000 0.500000
vt 0.750000 0.625000
vt 0.812500 0.562500
vt 0.812500 0.500000
vt 0.812500 0.625000
vt 0.875000 0.562500
vt 0.875000 0.500000
vt 0.875000 0.625000
vt 0.125000 0.687500
vt 0.125000 0.750000
vt 0.187500 0.750000
vt 0.187500 0.687500
vt 0.250000 0.750000
vt 0.250000 0.687500
vt 0.125000 0.500000
vt 0.125000 0.562500
vt 0.187500 0.562500
vt 0.187500 0.500000
vt 0.125000 0.625000
vt 0.187500 0.625000
vt 0.250000 0.562500
vt 0.250000 0.500000
vt 0.250000 0.625000
vt 0.312500 0.562500
vt 0.312500 0.500000
vt 0.312500 0.625000
vt 0.375000 0.562500
vt 0.375000 0.500000
vt 0.375000 0.625000
vt 0.375000 0.937500
vt 0.375000 1.000000
vt 0.437500 1.000000
vt 0.437500 0.937500
vt 0.500000 1.000000
vt 0.500000 0.937500
vt 0.375000 0.750000
vt 0.375000 0.812500
vt 0.437500 0.812500
vt 0.437500 0.750000
vt 0.375000 0.875000
vt 0.437500 0.875000
vt 0.500000 0.812500
vt 0.500000 0.750000
vt 0.500000 0.875000
vt 0.562500 0.812500
vt 0.562500 0.750000
vt 0.562500 0.875000
vt 0.625000 0.812500
vt 0.625000 0.750000
vt 0.625000 0.875000
vt 0.375000 0.687500
vt 0.375000 0.750000
vt 0.437500 0.750000
vt 0.437500 0.687500
vt 0.500000 0.750000
vt 0.500000 0.687500
vt 0.375000 0.500000
vt 0.375000 0.562500
vt 0.437500 0.562500
vt 0.437500 0.500000
vt 0.375000 0.625000
vt 0.437500 0.625000
vt 0.500000 0.562500
vt 0.500000 0.500000
vt 0.500000 0.625000
vt 0.562500 0.562500
vt 0.562500 0.500000
vt 0.562500 0.625000
vt 0.625000 0.562500
vt 0.625000 0.500000
vt 0.625000 0.625000
vt 0.375000 0.437500
vt 0.375000 0.500000
vt 0.437500 0.500000
vt 0.437500 0.437500
vt 0.500000 0.500000
vt 0.500000 0.437500
vt 0.375000 0.250000
vt 0.375000 0.312500
vt 0.437500 0.312500
vt 0.437500 0.250000
vt 0.375000 0.375000
vt 0.437500 0.375000
vt 0.500000 0.312500
vt 0.500000 0.250000
vt 0.500000 0.375000
vt 0.562500 0.312500
vt 0.562500 0.250000
vt 0.562500 0.375000
vt 0.625000 0.312500
vt 0.625000 0.250000
vt 0.625000 0.375000
vt 0.375000 0.187500
vt 0.375000 0.250000
vt 0.437500 0.250000
vt 0.437500 0.187500
vt 0.500000 0.250000
vt 0.500000 0.187500
vt 0.375000 0.000000
vt 0.375000 0.062500
vt 0.437500 0.062500
vt 0.437500 0.000000
vt 0.375000 0.125000
vt 0.437500 0.125000
vt 0.500000 0.062500
vt 0.500000 0.000000
vt 0.500000 0.125000
vt 0.562500 0.062500
vt 0.562500 0.000000
vt 0.562500 0.125000
vt 0.625000 0.062500
vt 0.625000 0.000000
vt 0.625000 0.125000
vn -0.6617 0.5661 0.4916
vn 0.7200 -0.4546 0.5244
vn -0.5944 -0.0088 0.8041
vn 0.8423 0.2989 0.4485
vn 0.5981 0.5272 -0.6036
vn -0.9219 -0.0048 -0.3874
vn -0.4983 -0.7174 -0.4869
vn -0.7264 0.1478 -0.6712
vn -0.8074 0.2073 -0.5523
vn -0.9278 -0.2639 0.2638
vn -0.7322 -0.2279 0.6419
vn -0.8682 -0.4874 0.0935
vn -0.7501 -0.4455 0.4887
vn -0.7646 -0.4865 0.4228
vn -0.9956 -0.0839 -0.0429
vn -0.6072 0.1383 0.7824
vn -0.9296 0.2510 0.2698
vn -0.8637 0.1559 -0.4793
vn -0.6692 0.4728 0.5733
vn -0.7095 0.6695 0.2200
vn -0.8207 0.5098 -0.2580
vn 0.5627 -0.3339 -0.7562
vn 0.5641 -0.5695 -0.5978
vn 0.7174 0.1245 -0.6854
vn -0.4418 -0.4885 -0.7524
vn -0.2574 -0.7039 -0.6620
vn 0.3373 -0.5818 -0.7401
vn -0.5217 -0.0988 -0.8474
vn -0.6648 -0.2959 -0.6859
vn 0.5002 -0.5885 -0.6352
vn -0.6274 0.0790 -0.7746
vn -0.6185 0.2829 -0.7331
vn 0.4842 0.2161 -0.8478
vn -0.4655 0.1776 -0.8670
vn -0.3741 0.4809 -0.7929
vn 0.0948 0.7204 -0.6871
vn 0.4899 -0.7452 0.4523
vn 0.8409 -0.0399 0.5398
vn 0.7545 0.3059 0.5806
vn 0.1035 -0.6289 -0.7706
vn 0.3280 -0.8952 -0.3018
vn 0.5980 -0.7403 0.3072
vn 0.4859 -0.1561 -0.8600
vn 0.9157 -0.2473 -0.3168
vn 0.9303 -0.2389 0.2782
vn 0.7282 0.1400 -0.6709
vn 0.8797 0.1890 -0.4365
vn 0.9332 0.1970 0.3004
vn 0.6787 0.4552 -0.5763
vn 0.7430 0.6692 -0.0057
vn 0.7135 0.6673 0.2135
vn -0.7251 -0.3625 0.5854
vn -0.7114 -0.2089 0.6710
vn -0.6500 0.2462 0.7190
vn 0.6129 -0.6848 0.3943
vn -0.1449 -0.5430 0.8272
vn -0.1847 -0.4183 0.8893
vn 0.4104 -0.0445 0.9108
vn -0.2070 -0.0869 0.9745
vn -0.1212 -0.0389 0.9919
vn 0.5664 0.3636 0.7396
vn 0.1311 0.0858 0.9876
vn -0.3978 -0.0218 0.9172
vn 0.3978 0.0628 0.9153
vn -0.0114 0.6340 0.7733
vn -0.1130 0.5653 0.8171
vn -0.7017 -0.6287 0.3352
vn -0.4902 -0.7589 0.4286
vn 0.1447 -0.8687 0.4737
vn -0.5726 -0.7125 -0.4056
vn -0.4384 -0.8870 -0.1452
vn -0.4163 -0.6943 0.5870
vn -0.1493 -0.7939 -0.5894
vn -0.3122 -0.9309 -0.1896
vn -0.5883 -0.7622 0.2701
vn -0.0311 -0.6993 -0.7141
vn 0.1694 -0.9785 -0.1178
vn 0.2139 -0.9195 0.3298
vn 0.7162 -0.4840 -0.5028
vn 0.7019 -0.6830 -0.2021
vn 0.6120 -0.7485 0.2553
vn 0.5590 0.7796 0.2822
vn 0.0467 0.9066 0.4194
vn 0.0572 0.8379 0.5429
vn 0.4846 0.7207 -0.4957
vn 0.5917 0.8061 -0.0055
vn 0.6525 0.7386 0.1694
vn 0.1898 0.7239 -0.6633
vn 0.2462 0.9549 -0.1662
vn 0.2352 0.9408 0.2439
vn -0.2780 0.7918 -0.5438
vn -0.2413 0.9560 -0.1668
vn -0.1653 0.9620 0.2175
vn -0.5048 0.7317 -0.4581
vn -0.6331 0.7738 -0.0186
vn -0.6385 0.7692 0.0255
vn 0.6587 -0.5684 -0.4930
vn -0.7152 0.4621 -0.5243
vn 0.5951 -0.0144 -0.8035
vn -0.8412 -0.3023 -0.4483
vn -0.5971 -0.5275 0.6044
vn 0.9208 -0.0032 0.3900
vn 0.5102 0.7104 0.4847
vn 0.7304 -0.1404 0.6685
vn 0.8075 -0.2058 0.5529
vn 0.9282 0.2643 -0.2619
vn 0.7362 0.2318 -0.6359
vn 0.8679 0.4887 -0.0888
vn 0.7514 0.4407 -0.4911
vn 0.7707 0.4810 -0.4180
vn 0.9953 0.0858 0.0458
vn 0.6125 -0.1377 -0.7784
vn 0.9299 -0.2498 -0.2699
vn 0.8700 -0.1545 0.4682
vn 0.6695 -0.4736 -0.5722
vn 0.7141 -0.6642 -0.2212
vn 0.8218 -0.5086 0.2568
vn -0.5615 0.3353 0.7565
vn -0.5684 0.5626 0.6004
vn -0.7148 -0.1251 0.6880
vn 0.4425 0.4898 0.7512
vn 0.2585 0.7020 0.6636
vn -0.3326 0.5824 0.7417
vn 0.5214 0.1006 0.8474
vn 0.6557 0.2984 0.6935
vn -0.4892 0.5858 0.6461
vn 0.6272 -0.0806 0.7747
vn 0.6109 -0.2811 0.7401
vn -0.4775 -0.2137 0.8523
vn 0.4667 -0.1811 0.8657
vn 0.3713 -0.4810 0.7942
vn -0.0969 -0.7184 0.6888
vn -0.4938 0.7407 -0.4555
vn -0.8402 0.0438 -0.5405
vn -0.7559 -0.3039 -0.5799
vn -0.1084 0.6295 0.7694
vn -0.3359 0.8936 0.2977
vn -0.6017 0.7383 -0.3046
vn -0.4893 0.1592 0.8575
vn -0.9141 0.2517 0.3180
vn -0.9306 0.2413 -0.2752
vn -0.7299 -0.1413 0.6688
vn -0.8822 -0.1889 0.4314
vn -0.9345 -0.1970 -0.2966
vn -0.6793 -0.4576 0.5738
vn -0.7451 -0.6669 0.0109
vn -0.7156 -0.6652 -0.2131
vn 0.7226 0.3629 -0.5883
vn 0.7092 0.2090 -0.6733
vn 0.6500 -0.2428 -0.7201
vn -0.6092 0.6805 -0.4072
vn 0.1386 0.5464 -0.8259
vn 0.1890 0.4210 -0.8871
vn -0.4117 0.0482 -0.9100
vn 0.1964 0.0869 -0.9767
vn 0.1268 0.0407 -0.9911
vn -0.5627 -0.3620 -0.7432
vn -0.1290 -0.0871 -0.9878
vn 0.3945 0.0196 -0.9187
vn -0.4006 -0.0737 -0.9133
vn 0.0086 -0.6303 -0.7763
vn 0.1165 -0.5609 -0.8197
vn 0.7017 0.6275 -0.3374
vn 0.4850 0.7604 -0.4320
vn -0.1431 0.8691 -0.4734
vn 0.5715 0.7131 0.4060
vn 0.4438 0.8853 0.1389
vn 0.4164 0.6975 -0.5832
vn 0.1509 0.7947 0.5879
vn 0.3107 0.9317 0.1880
vn 0.5804 0.7688 -0.2683
vn 0.0241 0.7016 0.7122
vn -0.1696 0.9784 0.1182
vn -0.2117 0.9202 -0.3293
vn -0.7145 0.4880 0.5013
vn -0.6984 0.6862 0.2033
vn -0.6110 0.7497 -0.2543
vn -0.5584 -0.7769 -0.2909
vn -0.0514 -0.9060 -0.4201
vn -0.0498 -0.8382 -0.5431
vn -0.4856 -0.7207 0.4947
vn -0.5901 -0.8073 0.0089
vn -0.6498 -0.7409 -0.1699
vn -0.1892 -0.7271 0.6600
vn -0.2454 -0.9550 0.1668
vn -0.2345 -0.9415 -0.2419
vn 0.2780 -0.7929 0.5422
vn 0.2399 -0.9562 0.1675
vn 0.1665 -0.9617 -0.2176
vn 0.5074 -0.7286 0.4601
vn 0.6328 -0.7740 0.0225
vn 0.6360 -0.7711 -0.0302
usemtl Center.001
s off
f 98/1/1 36/2/1 7/3/1 11/4/1
f 89/5/2 21/6/2 4/7/2 14/8/2
f 80/9/3 11/10/3 7/11/3 41/12/3
f 71/13/4 20/14/4 3/15/4 15/16/4
f 62/17/5 29/18/5 1/19/5 24/20/5
f 53/21/6 38/22/6 5/23/6 33/24/6
f 42/25/7 47/26/7 35/27/7 6/28/7
f 47/26/8 50/29/8 34/30/8 35/27/8
f 50/29/9 53/21/9 33/24/9 34/30/9
f 8/31/10 39/32/10 45/33/10 44/34/10
f 44/34/11 45/33/11 46/35/11 43/36/11
f 43/36/12 46/35/12 47/26/12 42/25/12
f 39/32/13 40/37/13 48/38/13 45/33/13
f 45/33/14 48/38/14 49/39/14 46/35/14
f 46/35/15 49/39/15 50/29/15 47/26/15
f 40/37/16 41/40/16 51/41/16 48/38/16
f 48/38/17 51/41/17 52/42/17 49/39/17
f 49/39/18 52/42/18 53/21/18 50/29/18
f 41/40/19 7/43/19 36/44/19 51/41/19
f 51/41/20 36/44/20 37/45/20 52/42/20
f 52/42/21 37/45/21 38/22/21 53/21/21
f 30/46/22 56/47/22 26/48/22 2/49/22
f 56/47/23 59/50/23 25/51/23 26/48/23
f 59/50/24 62/17/24 24/20/24 25/51/24
f 6/52/25 35/53/25 54/54/25 32/55/25
f 32/55/26 54/54/26 55/56/26 31/57/26
f 31/57/27 55/56/27 56/47/27 30/46/27
f 35/53/28 34/58/28 57/59/28 54/54/28
f 54/54/29 57/59/29 58/60/29 55/56/29
f 55/56/30 58/60/30 59/50/30 56/47/30
f 34/58/31 33/61/31 60/62/31 57/59/31
f 57/59/32 60/62/32 61/63/32 58/60/32
f 58/60/33 61/63/33 62/17/33 59/50/33
f 33/61/34 5/64/34 27/65/34 60/62/34
f 60/62/35 27/65/35 28/66/35 61/63/35
f 61/63/36 28/66/36 29/18/36 62/17/36
f 21/67/37 65/68/37 17/69/37 4/70/37
f 65/68/38 68/71/38 16/72/38 17/69/38
f 68/71/39 71/13/39 15/16/39 16/72/39
f 2/73/40 26/74/40 63/75/40 23/76/40
f 23/76/41 63/75/41 64/77/41 22/78/41
f 22/78/42 64/77/42 65/68/42 21/67/42
f 26/74/43 25/79/43 66/80/43 63/75/43
f 63/75/44 66/80/44 67/81/44 64/77/44
f 64/77/45 67/81/45 68/71/45 65/68/45
f 25/79/46 24/82/46 69/83/46 66/80/46
f 66/80/47 69/83/47 70/84/47 67/81/47
f 67/81/48 70/84/48 71/13/48 68/71/48
f 24/82/49 1/85/49 18/86/49 69/83/49
f 69/83/50 18/86/50 19/87/50 70/84/50
f 70/84/51 19/87/51 20/14/51 71/13/51
f 12/88/52 74/89/52 39/90/52 8/91/52
f 74/89/53 77/92/53 40/93/53 39/90/53
f 77/92/54 80/9/54 41/12/54 40/93/54
f 4/94/55 17/95/55 72/96/55 14/97/55
f 14/97/56 72/96/56 73/98/56 13/99/56
f 13/99/57 73/98/57 74/89/57 12/88/57
f 17/95/58 16/100/58 75/101/58 72/96/58
f 72/96/59 75/101/59 76/102/59 73/98/59
f 73/98/60 76/102/60 77/92/60 74/89/60
f 16/100/61 15/103/61 78/104/61 75/101/61
f 75/101/62 78/104/62 79/105/62 76/102/62
f 76/102/63 79/105/63 80/9/63 77/92/63
f 15/103/64 3/106/64 9/107/64 78/104/64
f 78/104/65 9/107/65 10/108/65 79/105/65
f 79/105/66 10/108/66 11/10/66 80/9/66
f 44/109/67 83/110/67 12/111/67 8/112/67
f 83/110/68 86/113/68 13/114/68 12/111/68
f 86/113/69 89/5/69 14/8/69 13/114/69
f 6/115/70 32/116/70 81/117/70 42/118/70
f 42/118/71 81/117/71 82/119/71 43/120/71
f 43/120/72 82/119/72 83/110/72 44/109/72
f 32/116/73 31/121/73 84/122/73 81/117/73
f 81/117/74 84/122/74 85/123/74 82/119/74
f 82/119/75 85/123/75 86/113/75 83/110/75
f 31/121/76 30/124/76 87/125/76 84/122/76
f 84/122/77 87/125/77 88/126/77 85/123/77
f 85/123/78 88/126/78 89/5/78 86/113/78
f 30/124/79 2/127/79 23/128/79 87/125/79
f 87/125/80 23/128/80 22/129/80 88/126/80
f 88/126/81 22/129/81 21/6/81 89/5/81
f 20/130/82 92/131/82 9/132/82 3/133/82
f 92/131/83 95/134/83 10/135/83 9/132/83
f 95/134/84 98/1/84 11/4/84 10/135/84
f 1/136/85 29/137/85 90/138/85 18/139/85
f 18/139/86 90/138/86 91/140/86 19/141/86
f 19/141/87 91/140/87 92/131/87 20/130/87
f 29/137/88 28/142/88 93/143/88 90/138/88
f 90/138/89 93/143/89 94/144/89 91/140/89
f 91/140/90 94/144/90 95/134/90 92/131/90
f 28/142/91 27/145/91 96/146/91 93/143/91
f 93/143/92 96/146/92 97/147/92 94/144/92
f 94/144/93 97/147/93 98/1/93 95/134/93
f 27/145/94 5/148/94 38/149/94 96/146/94
f 96/146/95 38/149/95 37/150/95 97/147/95
f 97/147/96 37/150/96 36/2/96 98/1/96
usemtl Contourn.001
f 196/151/97 109/152/97 105/153/97 134/154/97
f 187/155/98 112/156/98 102/157/98 119/158/98
f 178/159/99 139/160/99 105/161/99 109/162/99
f 169/163/100 113/164/100 101/165/100 118/166/100
f 160/167/101 122/168/101 99/169/101 127/170/101
f 151/171/102 131/172/102 103/173/102 136/174/102
f 140/175/103 104/176/103 133/177/103 145/178/103
f 145/178/104 133/177/104 132/179/104 148/180/104
f 148/180/105 132/179/105 131/172/105 151/171/105
f 106/181/106 142/182/106 143/183/106 137/184/106
f 142/182/107 141/185/107 144/186/107 143/183/107
f 141/185/108 140/175/108 145/178/108 144/186/108
f 137/184/109 143/183/109 146/187/109 138/188/109
f 143/183/110 144/186/110 147/189/110 146/187/110
f 144/186/111 145/178/111 148/180/111 147/189/111
f 138/188/112 146/187/112 149/190/112 139/191/112
f 146/187/113 147/189/113 150/192/113 149/190/113
f 147/189/114 148/180/114 151/171/114 150/192/114
f 139/191/115 149/190/115 134/193/115 105/194/115
f 149/190/116 150/192/116 135/195/116 134/193/116
f 150/192/117 151/171/117 136/174/117 135/195/117
f 128/196/118 100/197/118 124/198/118 154/199/118
f 154/199/119 124/198/119 123/200/119 157/201/119
f 157/201/120 123/200/120 122/168/120 160/167/120
f 104/202/121 130/203/121 152/204/121 133/205/121
f 130/203/122 129/206/122 153/207/122 152/204/122
f 129/206/123 128/196/123 154/199/123 153/207/123
f 133/205/124 152/204/124 155/208/124 132/209/124
f 152/204/125 153/207/125 156/210/125 155/208/125
f 153/207/126 154/199/126 157/201/126 156/210/126
f 132/209/127 155/208/127 158/211/127 131/212/127
f 155/208/128 156/210/128 159/213/128 158/211/128
f 156/210/129 157/201/129 160/167/129 159/213/129
f 131/212/130 158/211/130 125/214/130 103/215/130
f 158/211/131 159/213/131 126/216/131 125/214/131
f 159/213/132 160/167/132 127/170/132 126/216/132
f 119/217/133 102/218/133 115/219/133 163/220/133
f 163/220/134 115/219/134 114/221/134 166/222/134
f 166/222/135 114/221/135 113/164/135 169/163/135
f 100/223/136 121/224/136 161/225/136 124/226/136
f 121/224/137 120/227/137 162/228/137 161/225/137
f 120/227/138 119/217/138 163/220/138 162/228/138
f 124/226/139 161/225/139 164/229/139 123/230/139
f 161/225/140 162/228/140 165/231/140 164/229/140
f 162/228/141 163/220/141 166/222/141 165/231/141
f 123/230/142 164/229/142 167/232/142 122/233/142
f 164/229/143 165/231/143 168/234/143 167/232/143
f 165/231/144 166/222/144 169/163/144 168/234/144
f 122/233/145 167/232/145 116/235/145 99/236/145
f 167/232/146 168/234/146 117/237/146 116/235/146
f 168/234/147 169/163/147 118/166/147 117/237/147
f 110/238/148 106/239/148 137/240/148 172/241/148
f 172/241/149 137/240/149 138/242/149 175/243/149
f 175/243/150 138/242/150 139/160/150 178/159/150
f 102/244/151 112/245/151 170/246/151 115/247/151
f 112/245/152 111/248/152 171/249/152 170/246/152
f 111/248/153 110/238/153 172/241/153 171/249/153
f 115/247/154 170/246/154 173/250/154 114/251/154
f 170/246/155 171/249/155 174/252/155 173/250/155
f 171/249/156 172/241/156 175/243/156 174/252/156
f 114/251/157 173/250/157 176/253/157 113/254/157
f 173/250/158 174/252/158 177/255/158 176/253/158
f 174/252/159 175/243/159 178/159/159 177/255/159
f 113/254/160 176/253/160 107/256/160 101/257/160
f 176/253/161 177/255/161 108/258/161 107/256/161
f 177/255/162 178/159/162 109/162/162 108/258/162
f 142/259/163 106/260/163 110/261/163 181/262/163
f 181/262/164 110/261/164 111/263/164 184/264/164
f 184/264/165 111/263/165 112/156/165 187/155/165
f 104/265/166 140/266/166 179/267/166 130/268/166
f 140/266/167 141/269/167 180/270/167 179/267/167
f 141/269/168 142/259/168 181/262/168 180/270/168
f 130/268/169 179/267/169 182/271/169 129/272/169
f 179/267/170 180/270/170 183/273/170 182/271/170
f 180/270/171 181/262/171 184/264/171 183/273/171
f 129/272/172 182/271/172 185/274/172 128/275/172
f 182/271/173 183/273/173 186/276/173 185/274/173
f 183/273/174 184/264/174 187/155/174 186/276/174
f 128/275/175 185/274/175 121/277/175 100/278/175
f 185/274/176 186/276/176 120/279/176 121/277/176
f 186/276/177 187/155/177 119/158/177 120/279/177
f 118/280/178 101/281/178 107/282/178 190/283/178
f 190/283/179 107/282/179 108/284/179 193/285/179
f 193/285/180 108/284/180 109/152/180 196/151/180
f 99/286/181 116/287/181 188/288/181 127/289/181
f 116/287/182 117/290/182 189/291/182 188/288/182
f 117/290/183 118/280/183 190/283/183 189/291/183
f 127/289/184 188/288/184 191/292/184 126/293/184
f 188/288/185 189/291/185 192/294/185 191/292/185
f 189/291/186 190/283/186 193/285/186 192/294/186
f 126/293/187 191/292/187 194/295/187 125/296/187
f 191/292/188 192/294/188 195/297/188 194/295/188
f 192/294/189 193/285/189 196/151/189 195/297/189
f 125/296/190 194/295/190 136/298/190 103/299/190
f 194/295/191 195/297/191 135/300/191 136/298/191
f 195/297/192 196/151/192 134/154/192 135/300/192
